rtl/interconnect/obj_dir/waveform.vcd
$version Generated by VerilatedVcd $end
$timescale 1ps $end

 $scope module TOP $end
  $var wire 32 s master_a_address [31:0] $end
  $var wire  1 v master_a_corrupt $end
  $var wire 32 u master_a_data [31:0] $end
  $var wire  4 t master_a_mask [3:0] $end
  $var wire  3 o master_a_opcode [2:0] $end
  $var wire  3 p master_a_param [2:0] $end
  $var wire  1 x master_a_ready $end
  $var wire  4 q master_a_size [3:0] $end
  $var wire  4 r master_a_source [3:0] $end
  $var wire  1 w master_a_valid $end
  $var wire  1 !! master_d_corrupt $end
  $var wire 32 ~ master_d_data [31:0] $end
  $var wire  1 } master_d_denied $end
  $var wire  3 y master_d_opcode [2:0] $end
  $var wire  2 z master_d_param [1:0] $end
  $var wire  1 #! master_d_ready $end
  $var wire  4 { master_d_size [3:0] $end
  $var wire  4 | master_d_source [3:0] $end
  $var wire  1 "! master_d_valid $end
  $var wire 64 (! slave_a_address [63:0] $end
  $var wire  2 -! slave_a_corrupt [1:0] $end
  $var wire 64 +! slave_a_data [63:0] $end
  $var wire  8 *! slave_a_mask [7:0] $end
  $var wire  6 $! slave_a_opcode [5:0] $end
  $var wire  6 %! slave_a_param [5:0] $end
  $var wire  2 /! slave_a_ready [1:0] $end
  $var wire  8 &! slave_a_size [7:0] $end
  $var wire  8 '! slave_a_source [7:0] $end
  $var wire  2 .! slave_a_valid [1:0] $end
  $var wire  2 7! slave_d_corrupt [1:0] $end
  $var wire 64 5! slave_d_data [63:0] $end
  $var wire  2 4! slave_d_denied [1:0] $end
  $var wire  6 0! slave_d_opcode [5:0] $end
  $var wire  4 1! slave_d_param [3:0] $end
  $var wire  2 9! slave_d_ready [1:0] $end
  $var wire  8 2! slave_d_size [7:0] $end
  $var wire  8 3! slave_d_source [7:0] $end
  $var wire  2 8! slave_d_valid [1:0] $end
  $var wire  1 m tilelink_clock_i $end
  $var wire  1 n tilelink_reset_i $end
  $scope module TileLink1toN $end
   $var wire  1 ? bitscan [0:0] $end
   $var wire  2 ] block [1:0] $end
   $var wire  1 B burst $end
   $var wire 12 ` burst_counters [11:0] $end
   $var wire  1 a burst_ending $end
   $var wire  1 [ busy $end
   $var wire  1 ^ lock $end
   $var wire  2 _ locked_slave_select [1:0] $end
   $var wire 32 s master_a_address [31:0] $end
   $var wire  1 v master_a_corrupt $end
   $var wire 32 u master_a_data [31:0] $end
   $var wire  4 t master_a_mask [3:0] $end
   $var wire  3 o master_a_opcode [2:0] $end
   $var wire  3 p master_a_param [2:0] $end
   $var wire  1 x master_a_ready $end
   $var wire  4 q master_a_size [3:0] $end
   $var wire  4 r master_a_source [3:0] $end
   $var wire  1 w master_a_valid $end
   $var wire  1 !! master_d_corrupt $end
   $var wire 32 ~ master_d_data [31:0] $end
   $var wire  1 } master_d_denied $end
   $var wire  3 y master_d_opcode [2:0] $end
   $var wire  2 z master_d_param [1:0] $end
   $var wire  1 #! master_d_ready $end
   $var wire  4 { master_d_size [3:0] $end
   $var wire  4 | master_d_source [3:0] $end
   $var wire  1 "! master_d_valid $end
   $var wire  1 * master_stalled $end
   $var wire 12 J number_to_write [11:0] $end
   $var wire  1 @ once $end
   $var wire  1 I resp_corrupt $end
   $var wire 32 G resp_data [31:0] $end
   $var wire  1 H resp_denied $end
   $var wire  4 F resp_id [3:0] $end
   $var wire  3 C resp_opcode [2:0] $end
   $var wire  2 D resp_param [1:0] $end
   $var wire  4 E resp_size [3:0] $end
   $var wire  2 5 slaveResponseStalled [1:0] $end
   $var wire 64 (! slave_a_address [63:0] $end
   $var wire  2 -! slave_a_corrupt [1:0] $end
   $var wire 64 +! slave_a_data [63:0] $end
   $var wire  8 *! slave_a_mask [7:0] $end
   $var wire  6 $! slave_a_opcode [5:0] $end
   $var wire  6 %! slave_a_param [5:0] $end
   $var wire  2 /! slave_a_ready [1:0] $end
   $var wire  8 &! slave_a_size [7:0] $end
   $var wire  8 '! slave_a_source [7:0] $end
   $var wire  2 .! slave_a_valid [1:0] $end
   $var wire 64 <! slave_addresses [63:0] $end
   $var wire  2 7! slave_d_corrupt [1:0] $end
   $var wire 64 5! slave_d_data [63:0] $end
   $var wire  2 4! slave_d_denied [1:0] $end
   $var wire  6 0! slave_d_opcode [5:0] $end
   $var wire  4 1! slave_d_param [3:0] $end
   $var wire  2 9! slave_d_ready [1:0] $end
   $var wire  8 2! slave_d_size [7:0] $end
   $var wire  8 3! slave_d_source [7:0] $end
   $var wire  2 8! slave_d_valid [1:0] $end
   $var wire 64 >! slave_end_addresses [63:0] $end
   $var wire  2 4 slave_select [1:0] $end
   $var wire  1 m tilelink_clock_i $end
   $var wire  1 n tilelink_reset_i $end
   $var wire  1 A twoormore $end
   $var wire 32 / working_master_a_address [31:0] $end
   $var wire  1 2 working_master_a_corrupt $end
   $var wire 32 1 working_master_a_data [31:0] $end
   $var wire  4 0 working_master_a_mask [3:0] $end
   $var wire  3 + working_master_a_opcode [2:0] $end
   $var wire  3 , working_master_a_param [2:0] $end
   $var wire  4 - working_master_a_size [3:0] $end
   $var wire  4 . working_master_a_source [3:0] $end
   $var wire  1 3 working_master_a_valid $end
   $var wire  2 \ working_slave_d_busy [1:0] $end
   $var wire  2 = working_slave_d_corrupt [1:0] $end
   $var wire 64 ; working_slave_d_data [63:0] $end
   $var wire  2 : working_slave_d_denied [1:0] $end
   $var wire  6 6 working_slave_d_opcode [5:0] $end
   $var wire  4 7 working_slave_d_param [3:0] $end
   $var wire  8 8 working_slave_d_size [7:0] $end
   $var wire  8 9 working_slave_d_source [7:0] $end
   $var wire  2 > working_slave_d_valid [1:0] $end
   $scope module skidbuffer $end
    $var wire 32 @! DW [31:0] $end
    $var wire  1 m clk_i $end
    $var wire  1 * combinational_busy_i $end
    $var wire 83 K cycle_data_o [82:0] $end
    $var wire  1 3 cycle_vld_o $end
    $var wire 83 b held_data [82:0] $end
    $var wire  1 [ held_vld $end
    $var wire  1 N hold_data $end
    $var wire  1 [ registered_busy_o $end
    $var wire 83 # registered_data_i [82:0] $end
    $var wire  1 w registered_vld_i $end
    $var wire  1 n reset_i $end
   $upscope $end
   $scope module skidbufferInstantiation[0] $end
    $scope module slave_skidbuffer $end
     $var wire 32 A! DW [31:0] $end
     $var wire  1 m clk_i $end
     $var wire  1 O combinational_busy_i $end
     $var wire 47 P cycle_data_o [46:0] $end
     $var wire  1 R cycle_vld_o $end
     $var wire 47 f held_data [46:0] $end
     $var wire  1 e held_vld $end
     $var wire  1 S hold_data $end
     $var wire  1 e registered_busy_o $end
     $var wire 47 & registered_data_i [46:0] $end
     $var wire  1 :! registered_vld_i $end
     $var wire  1 n reset_i $end
    $upscope $end
   $upscope $end
   $scope module skidbufferInstantiation[1] $end
    $scope module slave_skidbuffer $end
     $var wire 32 A! DW [31:0] $end
     $var wire  1 m clk_i $end
     $var wire  1 T combinational_busy_i $end
     $var wire 47 U cycle_data_o [46:0] $end
     $var wire  1 W cycle_vld_o $end
     $var wire 47 i held_data [46:0] $end
     $var wire  1 h held_vld $end
     $var wire  1 X hold_data $end
     $var wire  1 h registered_busy_o $end
     $var wire 47 ( registered_data_i [46:0] $end
     $var wire  1 ;! registered_vld_i $end
     $var wire  1 n reset_i $end
    $upscope $end
   $upscope $end
   $scope module unnamedblk1 $end
    $var wire 32 Y n [31:0] $end
   $upscope $end
   $scope module unnamedblk2 $end
    $var wire 32 Z n [31:0] $end
   $upscope $end
   $scope module unnamedblk3 $end
    $var wire 32 k x [31:0] $end
   $upscope $end
   $scope module unnamedblk4 $end
    $var wire 32 l n [31:0] $end
   $upscope $end
  $upscope $end
 $upscope $end
$enddefinitions $end


#0
b00000000000000000000000000000000000000000000000000000000000000000000000000000000000 #
b00000000000000000000000000000000000000000000000 &
b00000000000000000000000000000000000000000000000 (
0*
b000 +
b000 ,
b0000 -
b0000 .
b00000000000000000000000000000000 /
b0000 0
b00000000000000000000000000000000 1
02
03
b00 4
b11 5
b000000 6
b0000 7
b00000000 8
b00000000 9
b00 :
b0000000000000000000000000000000000000000000000000000000000000000 ;
b00 =
b00 >
0?
0@
0A
0B
b000 C
b00 D
b0000 E
b0000 F
b00000000000000000000000000000000 G
0H
0I
b000000000000 J
b00000000000000000000000000000000000000000000000000000000000000000000000000000000000 K
0N
1O
b00000000000000000000000000000000000000000000000 P
0R
0S
1T
b00000000000000000000000000000000000000000000000 U
0W
0X
b00000000000000000000000000000010 Y
b00000000000000000000000000000010 Z
0[
b00 \
b00 ]
0^
b00 _
b000000000000 `
0a
b00000000000000000000000000000000000000000000000000000000000000000000000000000000000 b
0e
b00000000000000000000000000000000000000000000000 f
0h
b00000000000000000000000000000000000000000000000 i
b00000000000000000000000000000000 k
b00000000000000000000000000000000 l
1m
1n
b000 o
b000 p
b0000 q
b0000 r
b00000000000000000000000000000000 s
b0000 t
b00000000000000000000000000000000 u
0v
0w
1x
b000 y
b00 z
b0000 {
b0000 |
0}
b00000000000000000000000000000000 ~
0!!
0"!
0#!
b000000 $!
b000000 %!
b00000000 &!
b00000000 '!
b0000000000000000000000000000000000000000000000000000000000000000 (!
b00000000 *!
b0000000000000000000000000000000000000000000000000000000000000000 +!
b00 -!
b00 .!
b00 /!
b000000 0!
b0000 1!
b00000000 2!
b00000000 3!
b00 4!
b0000000000000000000000000000000000000000000000000000000000000000 5!
b00 7!
b00 8!
b11 9!
0:!
0;!
b0000000000000000000100000000000000000000000000000010000000000000 <!
b0000000000000000001000000000000000010000000000000000000000000000 >!
b00000000000000000000000001010011 @!
b00000000000000000000000000101111 A!
#1
0m
#2
b00000000100000000000000000000000100000000000000000000011110000111100001111000011110 #
1*
b0010 -
b00000000000000000010000000000000 /
b00001111000011110000111100001111 1
13
b01 4
b00 5
b00000000100000000000000000000000100000000000000000000011110000111100001111000011110 K
0O
0T
1[
b00000000100000000000000000000000100000000000000000000011110000111100001111000011110 b
b00000000000000000000000000000010 k
b00000000000000000000000000000010 l
1m
0n
b0010 q
b00000000000000000010000000000000 s
b00001111000011110000111100001111 u
1w
0x
1#!
#3
0m
#4
0*
03
b00 4
0[
1m
0w
1x
b00000010 &!
b0000000000000000000000000000000000000000000000000010000000000000 (!
b0000000000000000000000000000000000001111000011110000111100001111 +!
b01 .!
b11 /!
#5
0m
#6
b00000010000000000011110000111100001111000011110 &
b00000000000000111000001110000011100000111000000 (
b10 5
b00000100 8
b1110000011100000111000001110000000001111000011110000111100001111 ;
b11 >
1@
1A
1B
b0100 E
b00001111000011110000111100001111 G
b000000000010 J
b00000010000000000011110000111100001111000011110 P
1R
1T
b00000000000000111000001110000011100000111000000 U
1W
b00000000000000000000000000000000 Y
b00000000000000000000000000000001 Z
b10 \
b01 ]
1^
b01 _
b000000000010 `
1h
b00000000000000111000001110000011100000111000000 i
1m
b0100 {
b00001111000011110000111100001111 ~
1"!
b00 .!
b00000100 2!
b1110000011100000111000001110000000001111000011110000111100001111 5!
b11 8!
b01 9!
1:!
1;!
#7
0m
#8
b00000010000000111100001111000011110000111100000 &
b00000000000000000000000000000000000000000000000 (
b1110000011100000111000001110000011110000111100001111000011110000 ;
b11110000111100001111000011110000 G
b00000010000000111100001111000011110000111100000 P
b000000000001 `
1m
b11110000111100001111000011110000 ~
b0000000000000000000000000000000011110000111100001111000011110000 5!
#9
0m
#10
b000000000000 `
1a
1m
#11
0m
#12
b01 5
1?
0B
b0000 E
b11100000111000001110000011100000 G
b000000000000 J
1O
1S
0T
b00000000000000000000000000000001 Y
b00000000000000000000000000000000 Z
0^
0a
1m
#13
0m
#14
b00 5
b0000000000000000000000000000000011110000111100001111000011110000 ;
b00 >
0?
0@
0A
b00000000000000000000000000000000 G
0O
0R
0S
b00000000000000000000000000000000000000000000000 U
0W
b00000000000000000000000000000010 Y
b00000000000000000000000000000010 Z
b00 \
b00 ]
b00 _
0h
1m
b0000 {
b11100000111000001110000011100000 ~
b00 8!
b11 9!
0:!
0;!
#15
0m
#16
1m
0"!
